X;X;X;X;X;X;X;X;X;
X;L;P;;X;;;;X;
X;X;X;;X;X;X;P;X;
X;;;;;;;;X;
X;L;;;X;X;X;P;X;
J;;S;;X;;;;X;
X;;;;X;;;;X;
X;;M;;X;;;;X;
X;;;;X;;A;;X;
X;X;X;X;X;X;J;X;X;
;;;;;;;;;
;;;;;;;;;
;;;;;;;;;
;;;;;;;;;
;;;;;;;;;
;;;;;;;;;
;;;;;;;;;
;;;;;;;;;
;;;;;;;;;
;;;;;;;;;
;;;;;;;;;
;;;;;;;;;
;;;;;;;;;
